<svg width="80" height="56" viewBox="0 0 80 56" fill="none" xmlns="http://www.w3.org/2000/svg">
<path fill-rule="evenodd" clip-rule="evenodd" d="M68 56C62.233 56 57.421 51.931 56.267 46.508H56.271C56.227 46.343 56.196 46.174 56.196 45.996C56.196 44.892 57.092 43.996 58.196 43.996H60.259C61.203 43.996 61.99 44.653 62.2 45.533L62.221 45.53C62.901 48.098 65.218 50 68 50C71.314 50 74 47.314 74 44C74 40.824 71.525 38.252 68.403 38.041C68.273 38.014 68.138 38 68 38H57.618H10H2C0.895 38 0 37.105 0 36V34C0 32.896 0.895 32 2 32H68C74.627 32 80 37.373 80 44C80 50.627 74.627 56 68 56ZM56 24H2C0.895 24 0 23.105 0 22V20C0 18.895 0.895 18 2 18H10H45.619H56C56.138 18 56.273 17.986 56.403 17.959C59.525 17.748 62 15.176 62 12C62 8.686 59.314 6 56 6C53.218 6 50.901 7.902 50.221 10.47L50.2 10.466C49.99 11.347 49.203 12.004 48.259 12.004H46.196C45.092 12.004 44.196 11.108 44.196 10.004C44.196 9.826 44.227 9.656 44.271 9.492H44.267C45.421 4.069 50.233 0 56 0C62.627 0 68 5.373 68 12C68 18.627 62.627 24 56 24Z" fill="#1B3B62"/>
</svg>
