{"type":"FeatureCollection", "features": [
{"type":"Feature","geometry":{"type":"Polygon","coordinates":[[[104.37184340844007,-6.082525273250058],[104.54274025035346,-6.293029108560196],[104.67439936844647,-6.450170636606819],[105.0037608238613,-6.843279470488946],[105.07800307628017,-6.921057068269972],[102.39700024266601,-8.808034672412333],[102.16283170565373,-8.799769900510544],[101.70478545842646,-8.758129332580685],[101.33002034705889,-8.66295089159856],[100.85412814214739,-8.490439967318105],[100.65484828134093,-8.392287200055156],[100.1492128136226,-8.04131669893304],[100.03689698332803,-7.945517902505236],[99.9469586265354,-7.8688057746527615],[99.82540170645287,-7.7522103615122315],[102.69221446435122,-5.732569411314122],[102.84357411498047,-5.606425885019869],[102.9757359189368,-5.4742640810635255],[103.28653103340724,-5.163468966593184],[103.64895379670963,-5.470373166666361],[104.37184340844007,-6.082525273250058]]]},"properties":{"WP_1":"C.05","WP_IMM":"Samudera Hindia barat Lampung","WPIMM":"(C.05. Samudera Hindia barat Lampung)","WilPel":"Stamar Panjang - Lampung","Field_SPLI":"C05","simbol":"C"}},
{"type":"Feature","geometry":{"type":"Polygon","coordinates":[[[106.35000000000004,-3.500012021432793],[106.35001416486044,-4.931599801802507],[105.90159967938418,-4.934629990489411],[105.89810180664072,-4.9200639724731285],[105.89489746093764,-4.911927223205522],[105.88950347900399,-4.902814865112278],[105.87989807128909,-4.8958868980407875],[105.8758010864259,-4.889542102813712],[105.87010192871108,-4.876097202300974],[105.86859893798827,-4.8692340850829705],[105.86489868164071,-4.8582649230957085],[105.86289978027344,-4.846446037292514],[105.86100006103517,-4.838940143585232],[105.86100006103517,-4.826711177825912],[105.85929870605472,-4.812231063842761],[105.85890197753908,-4.7996587753294815],[105.85929870605472,-4.77606010437008],[105.86309814453126,-4.745831012725828],[105.86460113525389,-4.742550849914503],[105.8675994873048,-4.727089881897003],[105.87280273437499,-4.714928150176997],[105.87760162353517,-4.705986022949245],[105.8792037963868,-4.696759223938015],[105.87339782714845,-4.684752941131483],[105.87529754638672,-4.678410053253176],[105.88639831542973,-4.681013107299799],[105.89209747314455,-4.680609226226769],[105.89830017089855,-4.671846866607639],[105.90589904785165,-4.662847995758087],[105.90989685058601,-4.652587890625034],[105.91290283203128,-4.647400856018043],[105.91210174560547,-4.640066146850549],[105.90799713134774,-4.632862091064412],[105.90290069580091,-4.625874042510999],[105.89720153808591,-4.619874000549325],[105.88919830322264,-4.614500999450707],[105.88880157470717,-4.60792493820192],[105.88520050048827,-4.599101066589247],[105.88420104980482,-4.593910217285165],[105.88469696044928,-4.582261085510227],[105.88639831542973,-4.572334766387916],[105.88870239257818,-4.5645451545715385],[105.89160156250009,-4.558093070983778],[105.89730072021491,-4.549847126007075],[105.90399932861337,-4.54344511032105],[105.90350341796874,-4.534564971923812],[105.89939880371101,-4.521578788757315],[105.89700317382827,-4.511369228363057],[105.89540100097663,-4.499368190765415],[105.89600372314463,-4.4807338714599485],[105.89810180664072,-4.465970039367702],[105.89969635009764,-4.460776805877705],[105.90859985351574,-4.438923835754368],[105.90429687500001,-4.433320045471186],[105.90100097656264,-4.432861804962181],[105.89489746093764,-4.435853004455522],[105.88950347900399,-4.444966793060297],[105.88719940185554,-4.4441018104552885],[105.88590240478527,-4.438385963439947],[105.87879943847663,-4.429790973663335],[105.8731002807618,-4.420101165771447],[105.86730194091798,-4.412942886352541],[105.8626022338868,-4.409012794494634],[105.85530090332034,-4.4057278633117445],[105.85109710693362,-4.4010472297668155],[105.85590362548834,-4.394529819488509],[105.85890197753908,-4.386802196502645],[105.85820007324226,-4.376365184783944],[105.85690307617197,-4.372785091400152],[105.85240173339844,-4.369379043579121],[105.84259796142588,-4.364359855651886],[105.83390045166016,-4.356852054595924],[105.8281021118165,-4.352697849273698],[105.82240295410169,-4.340808868408216],[105.81919860839842,-4.329044818878144],[105.81759643554696,-4.3164639472961195],[105.8169021606445,-4.282782077789312],[105.81809997558597,-4.271130084991489],[105.81729888916014,-4.258831024169881],[105.81790161132814,-4.254106998443637],[105.81980133056642,-4.221751213073729],[105.81929779052741,-4.217997074127174],[105.82060241699223,-4.205133914947497],[105.82389831542979,-4.185348033905042],[105.82369995117196,-4.174567222595234],[105.82160186767587,-4.166203022003186],[105.82808645910644,-4.161423013114481],[105.83110046386724,-4.163313865661641],[105.83677673339845,-4.1636071205138645],[105.84033203125013,-4.159921169281008],[105.84326934814455,-4.149026870727509],[105.84615325927739,-4.133800029754605],[105.84581756591805,-4.125486850738499],[105.84668731689453,-4.114242076873738],[105.84664154052749,-4.105757236480608],[105.85032653808595,-4.0895519256591815],[105.85310363769543,-4.070570945739723],[105.85741424560551,-4.056898117065396],[105.8609313964845,-4.037464141845733],[105.86473846435558,-4.022243976592984],[105.86859130859372,-4.011051177978549],[105.8730392456055,-4.0000100135803205],[105.8755264282227,-3.99196600913991],[105.8818054199219,-3.9787158966063405],[105.88317871093756,-3.9711880683899157],[105.89066314697276,-3.9567968845366916],[105.893898010254,-3.951926946640013],[105.8965988159181,-3.9506220817565794],[105.90118408203138,-3.9423038959502907],[105.91102600097662,-3.926028966903635],[105.91882324218754,-3.9163589477538583],[105.92669677734384,-3.904437065124485],[105.92932128906254,-3.8975510597228666],[105.94246673583987,-3.875374078750623],[105.94941711425793,-3.864773988723732],[105.95301818847665,-3.8571989536285454],[105.95600128173831,-3.8479509353637606],[105.95869445800786,-3.8316829204559664],[105.95890808105476,-3.8250710964203147],[105.95634460449217,-3.8160190582274343],[105.951644897461,-3.808624982833871],[105.94210052490239,-3.7986669540404936],[105.93598175048831,-3.789474010467538],[105.93231964111328,-3.7816269397735933],[105.92544555664061,-3.773864030838011],[105.91279602050793,-3.7660710811615115],[105.90771484375,-3.7642579078674263],[105.90372467041017,-3.7612409591674965],[105.89551544189453,-3.7572150230408017],[105.88500976562499,-3.7530009746551816],[105.87640380859389,-3.7482790946960574],[105.85979461669935,-3.741148948669389],[105.85487365722655,-3.740312099456796],[105.8501815795899,-3.7409770488739245],[105.84635925292974,-3.7383580207824583],[105.84502410888678,-3.732831954956014],[105.84202575683604,-3.7289359569549116],[105.8358764648438,-3.723387956619236],[105.8249893188477,-3.7093949317931827],[105.81933593750011,-3.6987709999084704],[105.81642913818366,-3.6895380020140554],[105.81484985351564,-3.6695659160613534],[105.81577301025389,-3.6612238883972434],[105.8146667480469,-3.6554629802703484],[105.8154067993164,-3.639985084533711],[105.81855773925791,-3.615322113037097],[105.82231140136723,-3.5949740409850737],[105.82469177246107,-3.59010505676269],[105.82926177978527,-3.5666539669036954],[105.83650207519543,-3.5466198921203915],[105.84382629394531,-3.522559881210304],[105.8483352661134,-3.508887052535977],[105.85283266302997,-3.4999999999999662],[106.35000000000004,-3.500012021432793]]]},"properties":{"WP_1":"C.07","WP_IMM":"Perairan timur Lampung bagian utara","WPIMM":"(C.07. Perairan timur Lampung bagian utara)","WilPel":"Stamar Panjang - Lampung","Field_SPLI":"C07","simbol":"C"}},
{"type":"Feature","geometry":{"type":"Polygon","coordinates":[[[105.71230316162135,-5.9050030708311905],[105.52940350884965,-5.873987306210756],[105.53250122070344,-5.870116233825714],[105.54199981689482,-5.8657898902893155],[105.54270172119163,-5.862568855285618],[105.52940368652371,-5.861700057983429],[105.52690124511744,-5.859965801238905],[105.52700042724626,-5.856574058532745],[105.5328979492189,-5.852396965026815],[105.53389739990254,-5.8500437736511],[105.53189849853544,-5.845894813537496],[105.52839660644554,-5.848522186279267],[105.5231018066409,-5.846429824829121],[105.52159881591825,-5.8488931655884056],[105.52069854736344,-5.855504989624057],[105.5151175085432,-5.8605727687915685],[105.5087966918948,-5.855339050292981],[105.50420379638697,-5.855318069457956],[105.50050354003925,-5.862024784088101],[105.5031246904739,-5.869530995698954],[105.2895896869747,-5.833320148349715],[105.28829956054713,-5.826926231384229],[105.29570007324241,-5.817410945892339],[105.30470275878932,-5.820620059966993],[105.30750274658223,-5.8124670982361035],[105.30580139160178,-5.808028221130398],[105.30120086669942,-5.806053161621124],[105.29609680175805,-5.799004077911404],[105.2921981811525,-5.801813125610385],[105.2907028198244,-5.797202110290419],[105.2921981811525,-5.794847965240498],[105.2921981811525,-5.789330959320035],[105.29000091552759,-5.788971900939851],[105.28659820556668,-5.798500061035169],[105.28150177001986,-5.800497055053674],[105.28350067138695,-5.80573987960817],[105.27899932861358,-5.813940048217733],[105.27169799804713,-5.814022064208887],[105.27339935302759,-5.806838035583391],[105.27189636230494,-5.805338859558114],[105.2659988403323,-5.811351776122949],[105.26200103759794,-5.817028045654245],[105.25849914550803,-5.820116996765142],[105.25150299072293,-5.821636199951149],[105.24921417236355,-5.816370964050185],[105.24469757080094,-5.818036079406715],[105.24289703369166,-5.821076869964555],[105.23794148867732,-5.824561748116649],[105.1531982421877,-5.81019115447989],[105.15529632568379,-5.806517124175988],[105.15799713134788,-5.808773994445767],[105.16190338134797,-5.809140205383253],[105.1663970947268,-5.804323196411106],[105.17420196533226,-5.8022961616515065],[105.18119812011736,-5.802667140960645],[105.18699645996118,-5.804884910583526],[105.1946029663088,-5.803365230560194],[105.1967010498049,-5.801589012145888],[105.19429779052763,-5.79640102386478],[105.19640350341827,-5.78934288024899],[105.20020294189482,-5.786822795867815],[105.21080017089864,-5.785263061523468],[105.21440124511737,-5.788967132568375],[105.22049713134783,-5.7909498214721875],[105.2201995849612,-5.784617900848362],[105.22170257568382,-5.777842044830225],[105.2175979614261,-5.7781100273131845],[105.21479797363301,-5.774530887603776],[105.21549987793,-5.771944046020524],[105.20610046386746,-5.767351150512608],[105.20279693603537,-5.77291822433463],[105.19909667968781,-5.770082950592],[105.19640350341827,-5.77081918716433],[105.18949890136744,-5.769578933715854],[105.18450164794945,-5.771565914154083],[105.17939758300808,-5.770451068878076],[105.17690277099635,-5.7768850326537855],[105.16490173339871,-5.77130222320554],[105.16280364990261,-5.769621849060021],[105.1663970947268,-5.761133193969622],[105.16439819335953,-5.757328033447214],[105.15730285644561,-5.754651069641122],[105.15540313720733,-5.752799034118668],[105.15450286865251,-5.746811866760156],[105.15769958496125,-5.74768495559694],[105.16390228271507,-5.742142200469976],[105.17169952392598,-5.736478805542019],[105.17859649658226,-5.723165035247698],[105.18150329589871,-5.721452236175436],[105.18440246582063,-5.72273302078243],[105.1891021728518,-5.720049858093153],[105.19550323486345,-5.720313072204549],[105.20059967041045,-5.717918872833257],[105.21140289306663,-5.728153228759721],[105.21900177001973,-5.720246791839619],[105.21669769287128,-5.711557865142721],[105.21379852294938,-5.70815181732169],[105.209396362305,-5.70691776275631],[105.20279693603537,-5.7030367851257555],[105.19750213623072,-5.7054228782652725],[105.19360351562517,-5.7033920288084925],[105.19349670410182,-5.696490764617886],[105.19239807128936,-5.693264007568329],[105.1862030029299,-5.691915035247815],[105.1836013793948,-5.68787479400625],[105.18399810791044,-5.684020996093727],[105.19086456298857,-5.682848453521624],[105.19200134277372,-5.680664062499959],[105.1884994506838,-5.676109790801972],[105.18109893798854,-5.67100906372073],[105.18160247802753,-5.66469287872304],[105.19149780273455,-5.663642883300787],[105.19370269775418,-5.658764839172333],[105.198799133301,-5.657808780670189],[105.20719909667991,-5.6537637710571484],[105.20909881591818,-5.6511840820311985],[105.20909881591818,-5.646119117736822],[105.20400238037136,-5.642995834350591],[105.19039916992209,-5.6493711471557315],[105.19360351562517,-5.636613845825208],[105.18939971923845,-5.633832931518464],[105.19080352783226,-5.62981605529775],[105.18370056152362,-5.620120048522855],[105.17549896240253,-5.615137100219632],[105.16809844970726,-5.605206012725846],[105.16870117187526,-5.601189136505132],[105.17389678955108,-5.600576877594007],[105.1760025024417,-5.592995166778577],[105.17050170898453,-5.592450141906765],[105.16889953613307,-5.586517810821553],[105.17169952392598,-5.5857820510864595],[105.1752014160159,-5.589025020599388],[105.18090057373071,-5.585887908935524],[105.18329620361345,-5.588137149810764],[105.19080352783226,-5.5886878967285245],[105.20059967041045,-5.578382968902536],[105.20659637451192,-5.577607154846161],[105.21160125732446,-5.580566883087053],[105.21659851074246,-5.581853866577054],[105.22170257568382,-5.586705207824712],[105.2285995483401,-5.589038848876845],[105.23539733886739,-5.592412948608368],[105.23989868164092,-5.5899019241332635],[105.24469757080094,-5.589001178741478],[105.24500274658229,-5.584974765777547],[105.24960327148466,-5.576367855071981],[105.24639892578156,-5.571930885314954],[105.24189758300803,-5.570470809936486],[105.24359893798848,-5.566101074218773],[105.24629974365257,-5.563528060912978],[105.24949645996112,-5.56780195236208],[105.25360107421902,-5.562243938445951],[105.25340270996121,-5.554989814758256],[105.26097869873068,-5.545964241027731],[105.2548980712893,-5.545392036437887],[105.25129699707057,-5.547386169433507],[105.24859619140648,-5.544146060943552],[105.24810028076202,-5.537884235382103],[105.25129699707057,-5.53214502334591],[105.25019836425811,-5.527543067932102],[105.24629974365257,-5.522690773010149],[105.24890136718766,-5.518562793731659],[105.25569915771511,-5.526306152343659],[105.2665023803713,-5.521063804626488],[105.26429748535185,-5.5155310630798],[105.25959777832048,-5.511938095092669],[105.25569915771511,-5.502436161041265],[105.25450134277366,-5.496613025665239],[105.25219726562521,-5.491885185241726],[105.25430297851584,-5.483153820037808],[105.25080108642594,-5.471119880676275],[105.25730133056658,-5.4620580673217365],[105.26210021972676,-5.46041393280032],[105.26509857177767,-5.454567909240678],[105.26940155029321,-5.452861785888571],[105.2721023559573,-5.449594020843525],[105.28340148925813,-5.4482669830322425],[105.29250335693386,-5.44617605209354],[105.30210113525423,-5.4505410194396],[105.31120300292996,-5.456735134124765],[105.31829833984406,-5.46769809722902],[105.31629943847679,-5.477468013763383],[105.32430267334006,-5.486701965332005],[105.3253021240237,-5.497066020965532],[105.32710266113297,-5.500175952911276],[105.33280181884797,-5.503425121307389],[105.34709930419953,-5.519135951995798],[105.34909820556662,-5.523457050323396],[105.3593978881838,-5.535356044769243],[105.36620330810563,-5.545630931854225],[105.36830139160172,-5.5507569313049085],[105.36779785156273,-5.560472011566061],[105.36949920654318,-5.5640521049498535],[105.37650299072281,-5.570239067077539],[105.3784027099611,-5.574388027191054],[105.38059997558618,-5.584751129150286],[105.38729858398465,-5.593697071075395],[105.39070129394555,-5.600238800048848],[105.39579772949237,-5.6033368110656365],[105.39790344238301,-5.607430934906029],[105.40390014648465,-5.612352848052945],[105.40660095214874,-5.621276855468645],[105.40799713134784,-5.623129844665483],[105.4180984497072,-5.626164913177464],[105.4312973022463,-5.634677886962921],[105.43389892578158,-5.632856845855679],[105.4394989013674,-5.637255191802955],[105.4450988769534,-5.6362981796264275],[105.44689941406267,-5.642229080200108],[105.45230102539085,-5.647486209869298],[105.45690155029322,-5.650040149688747],[105.46009826660178,-5.650053977966204],[105.46510314941432,-5.6474971771240465],[105.47000122070332,-5.648550033569363],[105.46790313720723,-5.655671119689961],[105.46970367431668,-5.657577037811242],[105.47630310058614,-5.658708095550443],[105.48370361328142,-5.662308216094877],[105.48600006103533,-5.665307044982933],[105.48919677734406,-5.665204048156754],[105.49980163574243,-5.668880939483541],[105.50669860839871,-5.674372196197416],[105.5148010253908,-5.68234777450551],[105.51730346679707,-5.691915035247815],[105.52469635009781,-5.694076061248806],[105.52890014648453,-5.691737174987695],[105.52989959716817,-5.684897899627691],[105.53279876709009,-5.673234939575208],[105.53520202636736,-5.670599937438988],[105.54309844970727,-5.667180061340234],[105.54499816894554,-5.670986175537115],[105.54429626464872,-5.675012111663721],[105.5488967895511,-5.674571990966767],[105.55300140380882,-5.668434143066433],[105.55639648437518,-5.666847229003876],[105.55960083007828,-5.667775154113782],[105.56109619140655,-5.671409130096402],[105.55699920654318,-5.6870350837707715],[105.55349731445328,-5.693686962127705],[105.55300140380882,-5.696877002716013],[105.55750274658219,-5.7004380226135485],[105.55950164794946,-5.706089019775403],[105.56919860839865,-5.712110042571924],[105.5758972167971,-5.71807098388661],[105.58609771728547,-5.730305194854642],[105.58799743652375,-5.7369871139526705],[105.58730316162129,-5.743428230285593],[105.5846023559572,-5.748071193694978],[105.5847015380862,-5.754407882690456],[105.57939910888702,-5.763580799102682],[105.58000183105501,-5.770206928253204],[105.57949829101584,-5.7764611244201145],[105.57749938964874,-5.787271976470839],[105.58280181884793,-5.794600009918179],[105.58180236816429,-5.802877902984568],[105.58489990234402,-5.808183193206814],[105.59149932861348,-5.812870025634661],[105.59310150146511,-5.818573951721225],[105.59860229492212,-5.823778152465794],[105.60399627685575,-5.830645084381066],[105.61009979248075,-5.832166194915663],[105.61289978027366,-5.834424018859826],[105.6247024536135,-5.833847999572713],[105.63279724121122,-5.83826112747183],[105.64050292968768,-5.835475921630758],[105.64589691162132,-5.836136817932088],[105.65280151367215,-5.835241794586073],[105.65720367431669,-5.836873054504418],[105.67279815673852,-5.838273048400785],[105.67910003662134,-5.846415042877103],[105.68180084228543,-5.847977161407366],[105.68820190429707,-5.846281051635712],[105.70130157470734,-5.848186969756993],[105.70770263671899,-5.8532710075378045],[105.71119689941436,-5.858295917510899],[105.7093963623049,-5.86438608169559],[105.71080017089872,-5.874911785125688],[105.71420288085963,-5.878091812133809],[105.71330261230499,-5.887869834899858],[105.71420288085963,-5.893394947052007],[105.71219635009781,-5.901836872100793],[105.71230316162135,-5.9050030708311905]],[[105.31999969482452,-5.825693130493056],[105.31860351562524,-5.823269844055142],[105.31240081787142,-5.825891971588112],[105.31300354003923,-5.830205917358407],[105.31700134277361,-5.830163955688446],[105.31999969482452,-5.825693130493056]],[[105.34470367431662,-5.823735237121538],[105.34600067138689,-5.819201946258575],[105.34140014648453,-5.812044143676728],[105.33920288085962,-5.811631202697717],[105.33969879150408,-5.819462776184055],[105.34470367431662,-5.823735237121538]],[[105.33039855957053,-5.813433170318612],[105.32910156250024,-5.806406021118123],[105.3253021240237,-5.803516864776578],[105.32099914550797,-5.80292510986324],[105.31357574462908,-5.7887492179869735],[105.30789947509787,-5.790894031524681],[105.30699920654324,-5.794576168060269],[105.31269836425805,-5.798277854919439],[105.31639862060578,-5.8035249710082635],[105.31719970703142,-5.80738878250124],[105.32109832763697,-5.806418895721462],[105.32209777832061,-5.8125300407410005],[105.32589721679716,-5.815772056579545],[105.32720184326197,-5.822617053985498],[105.3330001831058,-5.82069206237796],[105.33229827880879,-5.814823150634792],[105.33039855957053,-5.813433170318612]],[[105.21439550387397,-5.730031647254071],[105.22119903564483,-5.732915878295804],[105.22139739990264,-5.728258132934579],[105.21739959716828,-5.72777509689328],[105.21439550387397,-5.730031647254071],[105.20700073242209,-5.730148792266872],[105.20529937744163,-5.735433101654005],[105.20809936523455,-5.736704826354929],[105.21350097656273,-5.735350131988556],[105.21569824218783,-5.732886791229271],[105.21439550387397,-5.730031647254071]],[[105.22010040283219,-5.689023017883207],[105.22760009765646,-5.6876211166381605],[105.23179626464865,-5.679763793945321],[105.23429870605493,-5.6772470474242684],[105.23650360107438,-5.669202804565328],[105.23169708251983,-5.663430213928185],[105.22699737548847,-5.662712097167995],[105.22090148925801,-5.6636600494384535],[105.21630096435564,-5.662199974060075],[105.21009826660182,-5.665510177612317],[105.20739746093773,-5.671420097350973],[105.209396362305,-5.676146984100368],[105.20809936523455,-5.680744171142612],[105.20819854736355,-5.687418937683072],[105.21399688720719,-5.689338207244839],[105.21569824218783,-5.6918778419494185],[105.22010040283219,-5.689023017883207]],[[105.24189758300803,-5.6399450302122975],[105.24089813232439,-5.634130001068135],[105.23359680175811,-5.631859779357869],[105.23159790039084,-5.62684297561646],[105.22589874267601,-5.618474006652848],[105.21469879150419,-5.621472835540727],[105.21299743652374,-5.623249053955034],[105.21369934082055,-5.637691974639788],[105.221603393555,-5.63812494277944],[105.22489929199237,-5.6367640495300595],[105.23020172119156,-5.636902809143015],[105.23329925537129,-5.640018939971943],[105.23979949951193,-5.64247083663942],[105.24189758300803,-5.6399450302122975]],[[105.2790985107424,-5.567594051361043],[105.2799911499025,-5.562397480011013],[105.27629852294949,-5.563327789306657],[105.27010345459003,-5.562719821929948],[105.2692031860354,-5.564900875091579],[105.27120208740267,-5.571873188018769],[105.27570343017604,-5.573676109313871],[105.27950286865259,-5.569781780242829],[105.2790985107424,-5.567594051361043]]]},"properties":{"WP_1":"C.04","WP_IMM":"Teluk Lampung bagian utara","WPIMM":"(C.04. Teluk Lampung bagian utara)","WilPel":"Stamar Panjang - Lampung","Field_SPLI":"C04","simbol":"C"}},
{"type":"Feature","geometry":{"type":"Polygon","coordinates":[[[106.35000000000004,-3.500012021432793],[105.85283266302997,-3.4999999999999662],[105.85477447509764,-3.4963889122009615],[105.85441589355469,-3.4912059307098584],[105.8604431152344,-3.4884951114654914],[105.86406707763675,-3.477355957031266],[105.87142181396487,-3.4581809043884046],[105.87522125244143,-3.4470419883727974],[105.87846374511722,-3.4412500858306903],[105.88221740722653,-3.429070949554399],[105.88169860839845,-3.4212460517883034],[105.89322662353516,-3.41845011711119],[105.89593505859379,-3.4157600402832298],[105.90332031249999,-3.399353027343773],[105.91062927246098,-3.385587930679309],[105.92276763916014,-3.3685250282287935],[105.92510223388675,-3.36289596557617],[105.92582702636717,-3.3572049140930336],[105.92818450927732,-3.3557829856872576],[105.9335098266602,-3.3558769226074556],[105.94248962402341,-3.3483428955078463],[105.94699859619139,-3.342621088027938],[105.95067596435551,-3.3346300125122372],[105.95593261718746,-3.3331780433654554],[105.96596527099607,-3.3238060474395557],[105.97920227050777,-3.3133089542389325],[105.9919204711914,-3.3038430213928347],[105.99869537353516,-3.300272941589318],[106.00443267822267,-3.2911579608917183],[106.0104827880859,-3.2845087051391406],[106.01504516601565,-3.2872569561004337],[106.02114105224612,-3.284075975418107],[106.0337905883789,-3.2759220600128334],[106.03794097900395,-3.2718739509582893],[106.04223632812504,-3.270920038223265],[106.04575347900393,-3.2672080993652006],[106.05136871337893,-3.266668081283571],[106.06677246093749,-3.2576699256896955],[106.07936859130858,-3.249650955200197],[106.08586120605469,-3.2382919788360685],[106.08779144287111,-3.231805086135827],[106.08802795410153,-3.2235190868377526],[106.08705902099614,-3.2141940593719074],[106.07993316650389,-3.193722963333153],[106.06558227539065,-3.16720700263979],[106.05234527587895,-3.1375429630279914],[106.04954528808595,-3.128554105758626],[106.04777526855466,-3.120026111602799],[106.04676055908203,-3.109661102294888],[106.04769897460936,-3.098506927490204],[106.05024719238286,-3.0859220027923815],[106.05477142333984,-3.0772609710693697],[106.0562973022461,-3.0723209381103143],[106.05635070800786,-3.0645499229431348],[106.05303955078124,-3.039958953857399],[106.0492630004883,-3.0232460498809974],[106.0464248657227,-3.0036659240722816],[106.0434722900391,-2.992686986923184],[106.04148864746091,-2.9881930351257378],[106.03677368164065,-2.9813320636749427],[106.03318023681636,-2.9785499572753746],[106.01770019531253,-2.969799041748052],[106.00701141357423,-2.9653849601745517],[106.00029754638669,-2.9671459197997816],[105.98563385009766,-2.9669790267944105],[105.97431945800784,-2.961172103881845],[105.9708480834961,-2.957475900650005],[105.96078491210942,-2.9430561065673952],[105.95700836181639,-2.942291021347062],[105.9466323852539,-2.953869104385417],[105.93766784667969,-2.9584989547729332],[105.92895507812497,-2.959619045257563],[105.91985321044925,-2.9588940143585116],[105.90638732910156,-2.9586699008941917],[105.89852905273435,-2.960485935211162],[105.89256286621094,-2.9631679058075253],[105.88396453857422,-2.9633650779724316],[105.86377716064456,-2.9574110507965177],[105.85868835449217,-2.955324888229379],[105.84533691406249,-2.94508600234988],[105.83969116210935,-2.939943075180059],[105.83211517333987,-2.931227922439602],[105.82572937011722,-2.9262490272521777],[105.81812286376957,-2.9241468906402854],[105.8145294189453,-2.920793056488021],[105.81129455566406,-2.91531395912172],[105.80807495117189,-2.906667947769167],[105.80147552490234,-2.897201061248774],[105.78997039794925,-2.8744220733642987],[105.78541564941402,-2.8575448989867933],[105.78436279296879,-2.8511040210724],[105.78395843505862,-2.8311851024627597],[105.78290557861331,-2.812649965286292],[105.78340148925786,-2.8058650493621737],[105.78796386718753,-2.7880949974060396],[105.78845214843753,-2.7833731174469154],[105.7870864868164,-2.770246982574461],[105.78958129882815,-2.7543148994446174],[105.78892517089847,-2.7373359203338463],[105.7879943847656,-2.728986978530875],[105.78762054443357,-2.7129840850829776],[105.78520202636722,-2.7041110992431303],[105.78288269042969,-2.6887431144714444],[105.78009796142577,-2.684185981750483],[105.77643585205081,-2.683074951171834],[105.75630187988284,-2.6877739429473433],[105.7422027587891,-2.6893930435180256],[105.7291564941406,-2.6869859695434837],[105.71500396728518,-2.6872200965881685],[105.69840240478517,-2.684163093566868],[105.6842193603516,-2.6795570850372616],[105.66479492187497,-2.6699879169463667],[105.65914154052739,-2.665992021560678],[105.6542434692383,-2.661254882812477],[105.64978790283206,-2.658587932586661],[105.64512634277348,-2.651209115982086],[105.63988494873043,-2.6458289623260765],[105.63508605957034,-2.6443750858307045],[105.6337966918945,-2.6387848854064497],[105.62611389160158,-2.6280589103698535],[105.61870574951176,-2.6111640930175337],[105.61692047119138,-2.602236032485946],[105.61185455322263,-2.5955440998077304],[105.61087799072268,-2.5847699642181663],[105.60925292968753,-2.57791304588317],[105.60514831542972,-2.553272008895876],[105.60503387451173,-2.54286003112791],[105.607048034668,-2.5291619300842303],[105.60862731933592,-2.513510942459126],[105.61179854331995,-2.4999999999999876],[105.93410212547997,-2.4999999999999876],[105.93421173095702,-2.5043799877166837],[105.93151855468746,-2.5218589305878023],[105.93734741210935,-2.5280599594116513],[105.93126678466797,-2.5297920703887886],[105.91948699951175,-2.540610074996904],[105.91451263427737,-2.5422599315643577],[105.91136169433595,-2.5603179931640927],[105.90348815917966,-2.577275991439839],[105.8989486694336,-2.5839369297027535],[105.89638519287111,-2.585920095443713],[105.89107513427739,-2.5843861103057773],[105.890495300293,-2.58938002586366],[105.89363098144534,-2.5938549041747603],[105.89593505859379,-2.6018600463867134],[105.89485168457031,-2.612859964370747],[105.8845443725586,-2.6357719898224072],[105.88646697998048,-2.6396150588988885],[105.89209747314455,-2.646657943725602],[105.8930587768555,-2.651262044906618],[105.90067291259767,-2.660347938537596],[105.90297698974612,-2.681857109069826],[105.90419006347656,-2.6881890296935627],[105.9070739746094,-2.6958119869231876],[105.91136169433595,-2.701761007308919],[105.91699218750003,-2.7178859710693413],[105.91461944580081,-2.7285079956054634],[105.9158401489258,-2.73586988449099],[105.92115020751952,-2.746242046356203],[105.9265899658203,-2.7527050971984455],[105.92934417724607,-2.760129928588869],[105.93824005126953,-2.765505075454696],[105.94649505615232,-2.7730519771575555],[105.9497604370117,-2.7784318923950355],[105.95231628417966,-2.7854039669036954],[105.95251464843747,-2.790786027908295],[105.94989013671876,-2.7960350513457985],[105.94879913330075,-2.8026208877563317],[105.94662475585938,-2.8071639537811297],[105.95187377929688,-2.807548046112048],[105.96281433105466,-2.8053140640258842],[105.97151947021484,-2.8099200725555793],[105.99609374999997,-2.8203558921813663],[106.00908660888672,-2.8208611011505145],[106.02162933349614,-2.823554039001449],[106.02674865722658,-2.825793027877795],[106.03628540039064,-2.8282899856567365],[106.04102325439452,-2.8257260322570996],[106.04723358154297,-2.824834108352677],[106.05465698242185,-2.82515311241149],[106.06771087646482,-2.8291211128234703],[106.08108520507811,-2.830528974533083],[106.09740447998047,-2.8334710597991606],[106.11270141601565,-2.842303037643431],[106.12614440917972,-2.8526740074157306],[106.13273620605473,-2.8595869541168515],[106.14086151123044,-2.873599052429162],[106.14521789550784,-2.8740470409393613],[106.14886474609372,-2.872641086578339],[106.16320037841797,-2.870337963104271],[106.17011260986331,-2.868675947189333],[106.1768951416016,-2.86866903305056],[106.18547058105473,-2.87193393707272],[106.19007873535153,-2.8714859485626096],[106.1982727050781,-2.878659009933445],[106.21190643310544,-2.882236003875734],[106.22029113769527,-2.8865959644317893],[106.22542572021487,-2.891166925430296],[106.22809600830081,-2.8954238891601722],[106.23296356201176,-2.8993260860442813],[106.23693084716797,-2.8996479511260684],[106.24832153320317,-2.8956820964812966],[106.25843048095707,-2.8975980281829425],[106.2762222290039,-2.902589082717851],[106.28876495361324,-2.9116189479827934],[106.30041503906247,-2.9221789836883136],[106.30496215820315,-2.9252490997314826],[106.31001281738284,-2.9267799854278262],[106.3175048828125,-2.9321620464325147],[106.32204437255864,-2.9368960857391233],[106.32883453369138,-2.9482209682464475],[106.33010864257812,-2.9538540840148695],[106.32498931884768,-2.9596130847930855],[106.33094024658202,-2.9632599353790443],[106.34937286376953,-2.9681849479675524],[106.35520172119142,-2.9684491157531543],[106.36045074462893,-2.967231035232528],[106.3667221069336,-2.967231988906823],[106.37709045410153,-2.970303058624287],[106.38233947753903,-2.9703059196471724],[106.38553619384768,-2.9644129276275653],[106.38950347900389,-2.966335058212307],[106.40710449218754,-2.9654440879821795],[106.41228485107419,-2.9666590690613024],[106.42534637451169,-2.9752340316772727],[106.43507385253903,-2.986363887786899],[106.438720703125,-2.997889995574928],[106.44204711914061,-3.0044159889221564],[106.44115447998051,-3.009663105010981],[106.44319915771484,-3.0120930671692268],[106.4560012817383,-3.016381025314315],[106.46784210205081,-3.02284908294674],[106.47334289550781,-3.030782938003581],[106.47904205322263,-3.0323851108551256],[106.48441314697266,-3.030143022537187],[106.4853134155273,-3.0323851108551256],[106.48166656494143,-3.0362250804901034],[106.49273681640628,-3.050561904907264],[106.49203491210938,-3.055103063583383],[106.49772644042966,-3.0646998882293683],[106.49753570556638,-3.0718719959259086],[106.49574279785155,-3.0763509273528964],[106.49337768554688,-3.0776929855346378],[106.49298858642578,-3.0846760272979576],[106.4865951538086,-3.0883839130401345],[106.48921966552739,-3.0937609672546404],[106.49561309814449,-3.097857952117918],[106.49683380126956,-3.1022698879242103],[106.50406646728517,-3.106880903243999],[106.50777435302734,-3.1129620075226203],[106.51353454589848,-3.1116149425506965],[106.52082824707031,-3.1121931076050178],[106.52358245849608,-3.1052789688110725],[106.52966308593746,-3.1038050651550595],[106.53382110595705,-3.0998380184173744],[106.53804779052739,-3.098619937896748],[106.54515075683594,-3.099071025848362],[106.54182434082031,-3.106880903243999],[106.5500793457031,-3.1096990108489617],[106.55264282226558,-3.1089270114898557],[106.55213165283205,-3.1045770645141655],[106.54822540283205,-3.0985600948333545],[106.54771423339842,-3.094654083251976],[106.55403900146486,-3.089236021041893],[106.56249999999999,-3.0832009315490314],[106.57049560546872,-3.079807043075574],[106.57631683349607,-3.0787220001220437],[106.58534240722659,-3.0736620426177605],[106.59532928466798,-3.072318077087429],[106.59699249267574,-3.076738119125407],[106.60524749755861,-3.0876131057739418],[106.61561584472655,-3.0846040248870796],[106.62086486816405,-3.08134102821351],[106.63314819335935,-3.078780889511142],[106.64275360107425,-3.079551935195953],[106.64742279052737,-3.081155061721793],[106.65023803710936,-3.086205959320095],[106.65119934082031,-3.091902017593414],[106.65612792968747,-3.1001589298248664],[106.66118621826169,-3.1004769802093843],[106.6664962768555,-3.0977280139923256],[106.67167663574216,-3.0932440757751554],[106.67820739746095,-3.089860916137651],[106.68473815917966,-3.0878059864044314],[106.68851470947268,-3.0900518894195503],[106.69465637207028,-3.091200113296507],[106.70000000000012,-3.0939370246499696],[106.70000000000012,-3.4999821900000025],[106.60000000000008,-3.499995351943271],[106.35000000000004,-3.500012021432793]]]},"properties":{"WP_1":"C.08","WP_IMM":"Selat Bangka bagian selatan","WPIMM":"(C.08. Selat Bangka bagian selatan)","WilPel":"Stamar Panjang - Lampung","Field_SPLI":"C08","simbol":"C"}},
{"type":"Feature","geometry":{"type":"Polygon","coordinates":[[[105.93410212547997,-2.4999999999999876],[105.61179854331995,-2.4999999999999876],[105.61814880371091,-2.4786219596862633],[105.62306213378908,-2.470180034637478],[105.62338256835942,-2.4633860588073784],[105.62939453124996,-2.4542000293731956],[105.6314468383789,-2.445578098297082],[105.63153076171875,-2.440458059310876],[105.63346862792972,-2.4307949542999605],[105.63105773925781,-2.421341896057113],[105.63068389892578,-2.405981063842729],[105.62501525878903,-2.3946759700775164],[105.61969757080077,-2.3914940357208057],[105.61769104003905,-2.392517089843734],[105.61123657226564,-2.4002089500427335],[105.60053253173828,-2.408854007720903],[105.59570312500003,-2.4117779731750186],[105.58278656005858,-2.4173018932342547],[105.57246398925778,-2.4189350605011004],[105.56900024414065,-2.4165298938751487],[105.56756591796878,-2.412875890731799],[105.5627517700195,-2.411426305770844],[105.56015014648442,-2.4079570770263867],[105.55289459228518,-2.40326499938965],[105.53955078125004,-2.4035599231720237],[105.52288818359372,-2.4012510776520077],[105.49024200439457,-2.3995170593261914],[105.48091125488278,-2.3979818820953422],[105.47869110107425,-2.3961279392242094],[105.46958160400389,-2.3951179981231494],[105.46277618408207,-2.39331102371216],[105.46049499511723,-2.3912849426269442],[105.44823455810547,-2.39193201065064],[105.437744140625,-2.393392086029019],[105.41912841796872,-2.3917601108550866],[105.41259765625003,-2.392765998840348],[105.40933227539062,-2.391663074493385],[105.40637969970703,-2.387574911117559],[105.39812469482426,-2.387541055679284],[105.38342285156253,-2.3839089870452543],[105.3746109008789,-2.3826720714569003],[105.35444641113286,-2.3824779987334974],[105.34928894042973,-2.382914066314653],[105.34294128417967,-2.3802459239960125],[105.33515930175784,-2.378837108612016],[105.3318862915039,-2.379859924316415],[105.32627868652345,-2.3779339790344043],[105.31934356689457,-2.378488063812286],[105.309455871582,-2.3752880096435245],[105.30525970458982,-2.3767089843750053],[105.29663848876956,-2.3717889785766797],[105.28919982910159,-2.369637966155965],[105.28357696533206,-2.371267080307012],[105.28234100341801,-2.3668339252471657],[105.27410888671876,-2.363641977310179],[105.26903533935547,-2.3601779937744336],[105.25977325439452,-2.3555209636687966],[105.25599670410158,-2.350898981094348],[105.24680328369139,-2.344584941864044],[105.24343109130864,-2.3430750370025475],[105.23418426513676,-2.3360199928283496],[105.22663116455081,-2.3344919681548912],[105.21209716796874,-2.34209394454958],[105.20613861083987,-2.3418419361114626],[105.19762420654298,-2.3485379219054767],[105.19006347656249,-2.3490910530090634],[105.18477630615237,-2.3513710498809868],[105.17529296875,-2.3577780723571937],[105.16088104248045,-2.3623299598693546],[105.14008331298825,-2.373306989669773],[105.13011169433595,-2.376140117645283],[105.12213897705075,-2.3822290897369722],[105.11579132080078,-2.380248069763221],[105.11553955078128,-2.3739690780639275],[105.11290740966795,-2.3732099533080717],[105.10293579101565,-2.373689889907867],[105.09577941894533,-2.372685909271196],[105.08491516113284,-2.3680369853973335],[105.08021545410156,-2.3684799671173504],[105.07191467285156,-2.3673589229583367],[105.0683059692383,-2.367919921874991],[105.06553649902344,-2.372108936309788],[105.0629043579102,-2.3818891048431343],[105.05231475830082,-2.3801798820495232],[105.04504394531251,-2.3685181140899534],[105.04273223876953,-2.3619499206543235],[105.03652191162108,-2.354621887207072],[105.02676391601567,-2.3471040725708345],[105.01533508300778,-2.3418838977813348],[104.99768066406246,-2.3378939628601234],[104.98358917236327,-2.3394410610199277],[104.96932220458986,-2.3366179466247825],[104.9624481201172,-2.336436986923248],[104.95201873779294,-2.3380470275878604],[104.94164276123047,-2.342361927032451],[104.93442535400393,-2.343511104583703],[104.93304443359374,-2.347997903823847],[104.93539428710942,-2.360294103622392],[104.93820190429686,-2.366681098937958],[104.93853759765628,-2.3716299533843763],[104.93744659423828,-2.3803150653839165],[104.93756103515626,-2.392158031463639],[104.93950653076168,-2.3986630439758425],[104.93836975097653,-2.4080810546875018],[104.93194580078128,-2.40923810005191],[104.92753601074219,-2.4072840213775724],[104.92449951171876,-2.398255109787014],[104.9180908203125,-2.3857150077819487],[104.90995025634763,-2.38047599792481],[104.90880584716794,-2.373058080673248],[104.91030120849612,-2.36599206924439],[104.91362762451173,-2.360635995864909],[104.9188461303711,-2.3385610580444602],[104.92234039306636,-2.330564022064193],[104.92246246337889,-2.319344997406022],[104.92613220214847,-2.3003740310669283],[104.92562103271484,-2.293180942535363],[104.92309570312504,-2.288875102996842],[104.91651153564457,-2.2846760749816806],[104.91158294677732,-2.2838621139526136],[104.89811706542964,-2.288347959518463],[104.88385009765625,-2.288925886154166],[104.8721618652344,-2.2883999347687],[104.86534118652342,-2.2887439727783363],[104.85794830322268,-2.290407896041865],[104.85215759277341,-2.2865080833434934],[104.84706115722658,-2.276717901229871],[104.8440322875977,-2.267118930816677],[104.84073638916014,-2.2502460479735884],[104.8364715576172,-2.2445089817046924],[104.83939361572264,-2.2422120571136315],[104.84844970703122,-2.2415249347686537],[104.85388946533202,-2.2394540309905917],[104.85830688476564,-2.234513998031625],[104.86730194091801,-2.220247983932518],[104.86936950683595,-2.210304975509599],[104.87183380126953,-2.206224918365459],[104.8789443969727,-2.1977119445800906],[104.88610839843747,-2.1856350898743013],[104.89436340332033,-2.1773030757903786],[104.89849090576176,-2.1691339015960285],[104.90250396728511,-2.1575179100036888],[104.90800476074222,-2.1475119590759615],[104.90772247314456,-2.135090112686152],[104.9052047729492,-2.1158831119536945],[104.89948272705077,-2.09144592285155],[104.89564514160153,-2.080924034118633],[104.89118194580077,-2.0711979866028205],[104.88722991943362,-2.0580339431762926],[104.88482666015626,-2.0518820285797066],[104.87617492675786,-2.0373148918152193],[104.85968017578129,-2.018459081649789],[104.85481262207036,-2.0134561061859255],[104.84758758544919,-2.007692098617527],[104.83955383300786,-2.004488945007351],[104.8325653076172,-2.0031669139861616],[104.81378173828128,-2.0031559467315905],[104.80722808837895,-2.0035989284515185],[104.79175567626956,-1.9998780488968269],[104.77085876464845,-1.9967989921569416],[104.75655364990236,-1.99570298194884],[104.74767303466797,-1.9943530559539422],[104.73748779296878,-1.9937640428543144],[104.72506713867188,-1.9922599792480309],[104.72180175781247,-1.9924490451812513],[104.71711730957028,-1.9953980445861905],[104.71270751953128,-1.9999480247497612],[104.68887329101567,-1.999951958656295],[104.69215393066405,-1.991639018058807],[104.69116973876949,-1.9881819486618344],[104.67980957031254,-1.9758490324020404],[104.67400360107418,-1.9676330089569003],[104.67102050781253,-1.9649369716644625],[104.66522979736324,-1.9623119831085187],[104.65710449218753,-1.9630969762802284],[104.648193359375,-1.9669950008392743],[104.63705444335939,-1.975216031074508],[104.63275909423828,-1.9809689521789817],[104.6225967407227,-1.9816089868545514],[104.62303161621094,-1.9731949567794747],[104.62210845947268,-1.9705439805984124],[104.61567687988281,-1.9628529548645322],[104.6113204956055,-1.9608620405196806],[104.6224594116211,-1.95396995544432],[104.62679290771489,-1.9497460126876884],[104.63059997558598,-1.9382029771805218],[104.63545227050784,-1.9341510534286197],[104.64808654785155,-1.9295489788055473],[104.65081024169925,-1.922230958938572],[104.64942169189452,-1.9168829917907768],[104.63335418701175,-1.9018620252609661],[104.62577819824217,-1.8935370445251696],[104.61253356933594,-1.883682012557971],[104.59784698486328,-1.8721079826355034],[104.58729553222659,-1.8658169507979903],[104.57910156250004,-1.8619339466094917],[104.5678176879883,-1.857661008834862],[104.5589370727539,-1.8528549671172865],[104.55303955078126,-1.8534599542617567],[104.54698181152341,-1.8570410013198444],[104.54524993896489,-1.8711090087891034],[104.54122161865237,-1.8824069499969251],[104.5359420776367,-1.8993140459060829],[104.53032684326172,-1.9152810573577614],[104.52931213378909,-1.9200030565261503],[104.53653717041017,-1.925107002258338],[104.53150177001956,-1.9270240068435438],[104.5266876220703,-1.925140976905789],[104.51558685302739,-1.9250739812850934],[104.5145034790039,-1.9269829988479668],[104.50162506103516,-1.9264539480209084],[104.49977874755857,-1.9198950529098777],[104.49540710449217,-1.9127739667892794],[104.48995971679685,-1.9089900255203371],[104.48515319824222,-1.9095859527588264],[104.48060607910153,-1.912017941474927],[104.47061920166016,-1.9082609415053984],[104.47345733642575,-1.9026620388031343],[104.47382354736332,-1.8888930082321362],[104.47701263427734,-1.8842799663544039],[104.47882843017578,-1.8781100511551205],[104.47744750976567,-1.8754140138625939],[104.46841430664061,-1.8698929548263319],[104.47037506103518,-1.8645559549331967],[104.46905517578129,-1.861796021461478],[104.4748306274414,-1.8608479499816664],[104.48025512695312,-1.85049104690553],[104.48298645019528,-1.850790023803702],[104.48898315429692,-1.8461600542068322],[104.49193572998051,-1.8394659757614082],[104.49168395996092,-1.83094394206997],[104.49533843994142,-1.826375961303702],[104.49756622314457,-1.8267749547958143],[104.49921417236325,-1.8211840391158827],[104.50273895263669,-1.8148980140686408],[104.5076599121094,-1.8134969472885363],[104.5119934082031,-1.8065049648285],[104.51226043701168,-1.8022979497909173],[104.51930999755864,-1.8044619560241468],[104.52571868896482,-1.804437041282677],[104.53429412841794,-1.8005939722061068],[104.54039764404294,-1.794697046279877],[104.5450744628906,-1.7876499891281004],[104.54612731933591,-1.7757270336150786],[104.54386138916016,-1.763123989105205],[104.54285430908206,-1.7520140409469551],[104.54607391357423,-1.7386339902877932],[104.54489898681639,-1.7256790399551267],[104.54316711425778,-1.7206209897995226],[104.54046630859378,-1.717399954795825],[104.53289794921875,-1.7120330333709486],[104.53557586669922,-1.707872033119214],[104.533317565918,-1.6998740434646518],[104.52819824218747,-1.69032800197599],[104.522102355957,-1.6807370185852175],[104.51522827148435,-1.676565051078823],[104.50804138183597,-1.6626490354538301],[104.5032653808594,-1.6565660238266187],[104.49845123291013,-1.6535270214081041],[104.4954528808594,-1.6459980010985884],[104.48914337158205,-1.6398010253906268],[104.48287963867192,-1.6323980093002586],[104.4771423339844,-1.624011993408244],[104.47368621826172,-1.6170599460601363],[104.46993255615232,-1.6062450408935245],[104.46555328369139,-1.5961879491805906],[104.4647979736328,-1.5910029411316327],[104.45778656005862,-1.5629860162734897],[104.45796966552737,-1.544901013374341],[104.45465850830074,-1.5297069549560636],[104.4510955810547,-1.5230970382690021],[104.44493865966794,-1.5082620382309084],[104.44294738769528,-1.4941090345382566],[104.44274902343747,-1.4850579500198489],[104.44358062744143,-1.4749870300292809],[104.44475555419919,-1.4697870016097756],[104.45044708251956,-1.4546250104904477],[104.4540710449219,-1.4412419795989582],[104.4554672241211,-1.430413961410478],[104.45579528808598,-1.4205060005188361],[104.46212768554686,-1.416105031967204],[104.46370697021489,-1.408373951911953],[104.46386718750001,-1.4019800424576143],[104.46244812011722,-1.38995099067691],[104.45867919921872,-1.3718849420547539],[104.45825958251956,-1.3671129941940716],[104.46216878041997,-1.3500000000100396],[104.84999999999998,-1.3499821900050133],[105.55000000000004,-1.3500000000000032],[105.55000000000004,-1.5582792029900059],[105.53446197509767,-1.56345701217648],[105.52140808105472,-1.5641570091247967],[105.51801300048825,-1.5650540590286663],[105.51315307617185,-1.5619879961013847],[105.50367736816409,-1.5599999427795073],[105.4940185546875,-1.560001969337451],[105.48614501953129,-1.562428951263458],[105.46438598632815,-1.5604519844055051],[105.45804595947264,-1.563711047172541],[105.45235443115236,-1.5687060356139835],[105.4529266357422,-1.5738899707793816],[105.44006347656253,-1.5860509872436221],[105.42665100097653,-1.5976070165633924],[105.42502593994138,-1.5997430086135598],[105.41439819335939,-1.6055079698562533],[105.40422058105473,-1.6067219972610811],[105.39577484130858,-1.605756044387837],[105.38829040527347,-1.6059559583663638],[105.38751983642581,-1.6106879711151176],[105.39027404785158,-1.611773014068559],[105.38848114013675,-1.6193909645080904],[105.38617706298831,-1.622079014778107],[105.38899230957028,-1.6277780532836648],[105.38886260986331,-1.630337953567503],[105.38169860839847,-1.6396130323409661],[105.3695373535156,-1.6440299749374407],[105.36089324951173,-1.6497939825058392],[105.35295867919922,-1.651072025299035],[105.34643554687504,-1.6460789442062715],[105.34143829345705,-1.646659016609183],[105.34054565429685,-1.6495989561080524],[105.34284973144531,-1.656131029129023],[105.34009552001953,-1.6626540422439238],[105.34317016601565,-1.671167016029381],[105.35411071777344,-1.6718070507049507],[105.36134338378905,-1.6769900321960538],[105.35961914062497,-1.6797399520874077],[105.35052490234378,-1.684157013893147],[105.3477096557617,-1.6840310096740883],[105.34201812744142,-1.689668059349044],[105.33401489257815,-1.693568944931064],[105.32183837890622,-1.6949754953384097],[105.32498931884763,-1.6980489492416115],[105.33491516113278,-1.7024619579315523],[105.33920288085935,-1.7002899646759015],[105.34233856201168,-1.703554987907415],[105.35334777832031,-1.7123830318450626],[105.36479949951172,-1.714815020561252],[105.36966705322267,-1.7170579433441322],[105.37760162353518,-1.7255059480667487],[105.38240051269528,-1.7326699495315143],[105.38873291015625,-1.7328679561615399],[105.39040374755855,-1.7360609769820865],[105.38540649414064,-1.7386230230331332],[105.3841934204102,-1.7432279586791797],[105.38867187500003,-1.7471979856491036],[105.40270233154301,-1.7492669820785753],[105.40704345703125,-1.7511659860610838],[105.41004943847652,-1.7573720216751152],[105.41241455078128,-1.766527056693997],[105.41887664794923,-1.77010798454282],[105.41887664794923,-1.7612149715423318],[105.42976379394534,-1.7591040134429878],[105.43105316162108,-1.763772010803196],[105.4262390136719,-1.7629410028457269],[105.42118072509768,-1.7647329568862578],[105.42240142822266,-1.7730560302734641],[105.42079925537112,-1.7759339809417316],[105.41331481933592,-1.7725429534912482],[105.40998840332031,-1.7694679498672503],[105.40716552734378,-1.7646100521087913],[105.40467071533205,-1.7537900209426436],[105.40294647216797,-1.752704977989202],[105.39603424072263,-1.754434943199131],[105.39481353759764,-1.7583340406418255],[105.39609527587893,-1.7653089761733707],[105.39360046386719,-1.7735689878464154],[105.39315032958987,-1.7793960571288867],[105.38893127441408,-1.7876479625701567],[105.38208007812503,-1.7989130020141761],[105.37868499755857,-1.8060150146484286],[105.37158203125001,-1.8158060312270816],[105.36863708496097,-1.818557024002084],[105.36466979980466,-1.8248989582061856],[105.35334777832031,-1.8356490135193102],[105.34687805175783,-1.8410249948501676],[105.33337402343746,-1.8492779731750861],[105.31334686279293,-1.8634860515594784],[105.295166015625,-1.87181198596957],[105.28281402587893,-1.8801289796829455],[105.27314758300781,-1.8908150196075244],[105.26796722412107,-1.8949140310287458],[105.26374053955081,-1.8998359441757504],[105.262336730957,-1.8945260047912935],[105.25811004638675,-1.8963179588318244],[105.2483825683594,-1.8966360092163423],[105.23577880859376,-1.9018219709395954],[105.229118347168,-1.906237959861775],[105.2215576171875,-1.9131510257720716],[105.21401977539062,-1.9136040210723646],[105.19590759277345,-1.9158409833907672],[105.17440032958982,-1.9221129417419345],[105.16563415527341,-1.9255059957504503],[105.15513610839841,-1.9324829578399392],[105.15366363525392,-1.937729954719499],[105.1498870849609,-1.9446430206298846],[105.14701080322268,-1.948035955429047],[105.13375854492192,-1.9546229839324933],[105.12461090087895,-1.9572470188140532],[105.12025451660155,-1.964159965515174],[105.12531280517577,-1.9666559696197314],[105.12960052490233,-1.9747170209884555],[105.1258239746094,-1.9841899871825905],[105.12236785888672,-1.9891840219497379],[105.12537384033207,-1.9963489770888874],[105.12371063232422,-2.001027107238725],[105.11513519287111,-2.0065279006958168],[105.11353302001956,-2.0127980709075697],[105.10668945312497,-2.0220170021057324],[105.11129760742188,-2.0266849994659406],[105.11373138427739,-2.032068014144924],[105.11788940429688,-2.0359039306641034],[105.1196823120117,-2.04492402076721],[105.12371063232422,-2.054912090301505],[105.12351989746094,-2.061054944992021],[105.12179565429688,-2.0651528835296826],[105.12473297119139,-2.0714859962463326],[105.12806701660153,-2.0826859474182466],[105.13139343261716,-2.0830121040344505],[105.13491058349614,-2.0796821117400963],[105.14540863037107,-2.073211908340463],[105.15436553955082,-2.0708498954772967],[105.16057586669919,-2.071038961410517],[105.16684722900393,-2.068224906921353],[105.17555236816403,-2.072829008102458],[105.17938995361328,-2.0735979080200604],[105.18681335449216,-2.0717420578002486],[105.19391632080081,-2.0722570419311435],[105.20333099365234,-2.0696320533751997],[105.20806121826168,-2.0671260356902774],[105.21721649169918,-2.064320087432888],[105.2216339111328,-2.0643188953399747],[105.2375717163086,-2.0693109035491783],[105.24761962890628,-2.0756509304046897],[105.25331115722656,-2.083647966384868],[105.25868988037114,-2.094204902648885],[105.26374053955081,-2.1073319911956343],[105.26898956298832,-2.11366391181946],[105.27884674072264,-2.123008012771562],[105.29318237304689,-2.1348481178283993],[105.30118560791016,-2.1428439617156645],[105.3049621582031,-2.1434218883514564],[105.30937957763672,-2.1402909755706876],[105.3216018676758,-2.128961086273181],[105.32537841796872,-2.1265270709991366],[105.33036804199219,-2.1256930828094287],[105.33900451660153,-2.1275548934936293],[105.34194946289067,-2.1267859935760267],[105.34758758544919,-2.122369050979641],[105.35833740234378,-2.1199970245361097],[105.37619781494138,-2.1258459091186364],[105.38009643554692,-2.128829956054675],[105.38368225097656,-2.1294720172881885],[105.39078521728511,-2.126593112945537],[105.39667510986331,-2.122430086135859],[105.41490936279301,-2.1175029277801425],[105.42047882080078,-2.1188499927520663],[105.42822265625001,-2.123452901840169],[105.4330215454102,-2.130372047424297],[105.43718719482423,-2.133311033248871],[105.43897247314452,-2.12908601760868],[105.441535949707,-2.1280000209808545],[105.44889831542969,-2.1186521053313943],[105.45990753173831,-2.1083528995513543],[105.47187042236327,-2.0997099876403933],[105.48480224609378,-2.091454982757531],[105.4916458129883,-2.0890190601348966],[105.49996948242192,-2.082494020462052],[105.50361633300778,-2.0805120468140057],[105.5154571533203,-2.0802540779114107],[105.5154571533203,-2.0848679542541735],[105.52601623535152,-2.0840330123901705],[105.53107452392575,-2.0817959308624143],[105.5386276245117,-2.076610088348426],[105.547004699707,-2.0728349685669354],[105.55897521972658,-2.068604946136473],[105.56307220458986,-2.067843914031938],[105.56230163574219,-2.0609240531921333],[105.55328369140629,-2.054594039916987],[105.54847717285156,-2.053184032440166],[105.53984069824223,-2.0491518974303755],[105.5368957519531,-2.0446119308471697],[105.53721618652344,-2.037184000015243],[105.53593444824214,-2.0282919406890496],[105.53663635253906,-2.0195159912109037],[105.54048156738284,-2.010369062423708],[105.54617309570312,-2.0048029422759814],[105.55632781982425,-1.9998780488968269],[105.56486511230469,-1.996989011764546],[105.58783721923827,-1.9962849617004306],[105.59065246582034,-1.994302034378089],[105.59340667724611,-1.987579941749603],[105.59784698486325,-1.981806039810193],[105.59831237792966,-1.9867999553680757],[105.59609222412112,-1.9889270067215268],[105.5949401855469,-1.995712041854821],[105.59264373779298,-1.9979560375213499],[105.57568359375003,-1.9991660118102903],[105.56179046630857,-2.0026900768279585],[105.55635070800778,-2.004735946655286],[105.54367828369138,-2.0145289897918826],[105.54144287109378,-2.0180490016937522],[105.54137420654294,-2.0282270908355624],[105.54029083251956,-2.0352020263671964],[105.54156494140622,-2.043840885162359],[105.5461120605469,-2.0483179092407564],[105.55712127685544,-2.051579952240031],[105.56524658203125,-2.0554220676422172],[105.56960296630857,-2.059075117111183],[105.5699234008789,-2.0625948905945233],[105.5681915283203,-2.0679690837859663],[105.56018829345702,-2.07936191558837],[105.5590362548828,-2.0819220542907377],[105.56543731689453,-2.0883159637450763],[105.57670593261719,-2.0929260253906588],[105.58054351806643,-2.0975379943847425],[105.5826568603516,-2.104196071624772],[105.58796691894533,-2.108988046646095],[105.5861740112305,-2.115583896636993],[105.59046173095706,-2.1199340820312127],[105.59999847412112,-2.119424104690589],[105.61215972900389,-2.1167318820953316],[105.62579345703124,-2.1169888973236315],[105.63001251220703,-2.1178200244903653],[105.64768218994143,-2.1138589382171578],[105.65580749511723,-2.1144340038299756],[105.66009521484379,-2.1191639900207857],[105.65805053710938,-2.12384200096127],[105.66316986083982,-2.124861955642695],[105.66566467285155,-2.121404886245722],[105.66873931884767,-2.1204450130462202],[105.67609405517581,-2.1216630935669354],[105.68192291259768,-2.1264638900757102],[105.68627166748047,-2.123459100723265],[105.69439697265626,-2.1250560283660977],[105.7038726806641,-2.1210899353027077],[105.70969390869136,-2.120834112167321],[105.71871948242189,-2.1231360435485644],[105.73395538330078,-2.128385066986068],[105.74822235107418,-2.1365110874176327],[105.75462341308591,-2.139584064483598],[105.75750732421875,-2.135166883468594],[105.76057434082031,-2.1386849880218737],[105.75794982910152,-2.1451539993285937],[105.76172637939455,-2.1503989696502988],[105.77619171142577,-2.1562900543213157],[105.78419494628903,-2.1655681133270175],[105.78771209716794,-2.170623064041118],[105.79116821289061,-2.180860996246322],[105.79148864746097,-2.1941769123077624],[105.79033660888673,-2.198592901229853],[105.78610992431639,-2.203905105590783],[105.78572845458983,-2.2080669403076367],[105.78924560546872,-2.2223401069641344],[105.79257965087888,-2.2265629768371173],[105.7864990234375,-2.2311069965362105],[105.78534698486327,-2.2353320121764906],[105.78656005859371,-2.248955965042084],[105.79027557373051,-2.254209041595475],[105.79328155517578,-2.255999088287327],[105.79475402832036,-2.2653429508208998],[105.80134582519528,-2.269825935363775],[105.8093414306641,-2.2766060829162402],[105.81139373779297,-2.279490947723369],[105.81132507324222,-2.2841589450835773],[105.8092803955078,-2.2875530719757418],[105.80985260009764,-2.292736053466756],[105.81811523437504,-2.3002209663391024],[105.820671081543,-2.300029993057292],[105.82367706298825,-2.3068759441375395],[105.8243865966797,-2.3150079250335818],[105.82297515869143,-2.324733972549394],[105.82041931152341,-2.32972908020019],[105.82041931152341,-2.3337628841400413],[105.81625366210938,-2.338370084762561],[105.81427001953126,-2.337538957595827],[105.80889892578124,-2.3452770709991153],[105.80773925781247,-2.3519990444183367],[105.80486297607426,-2.3538548946380597],[105.80178833007815,-2.3587241172790616],[105.80236816406253,-2.3630108833313255],[105.80921936035158,-2.3723518848419243],[105.81318664550778,-2.374530076980582],[105.81887817382817,-2.3809950351715035],[105.82137298583982,-2.3862400054931197],[105.82764434814456,-2.3941791057586723],[105.83110809326169,-2.40768289566042],[105.83475494384766,-2.4111359119415052],[105.84601593017578,-2.416068077087404],[105.86061096191406,-2.4207360744476123],[105.87014770507812,-2.4253430366516024],[105.87276458740239,-2.4250879287719815],[105.87878417968747,-2.418046951293947],[105.88089752197263,-2.425789117813123],[105.89126586914067,-2.430911064147919],[105.90914154052734,-2.4411571025848087],[105.91897583007812,-2.450114965438873],[105.92908477783203,-2.4641919136047594],[105.93222045898438,-2.473027944564828],[105.93363189697263,-2.4805810451507835],[105.93484497070317,-2.493949890136756],[105.93410212547997,-2.4999999999999876]]]},"properties":{"WP_1":"C.09","WP_IMM":"Selat Bangka bagian utara","WPIMM":"(C.09. Selat Bangka bagian utara)","WilPel":"Stamar Panjang - Lampung","Field_SPLI":"C09","simbol":"C"}},
{"type":"Feature","geometry":{"type":"Polygon","coordinates":[[[104.56250415770009,-5.929996673840284],[104.37184340844007,-6.082525273250058],[103.64895379670963,-5.470373166666361],[103.28653103340724,-5.163468966593184],[103.53509495289038,-4.91490504710996],[103.54337310791024,-4.915963172912582],[103.54923248291038,-4.919585227966335],[103.55466461181653,-4.920125007629347],[103.56278228759788,-4.925326824188266],[103.57074737548847,-4.925965785980187],[103.58144378662129,-4.921960830688429],[103.58970642089852,-4.921867847442526],[103.60019683837899,-4.922630786895651],[103.60990142822288,-4.924838066101108],[103.63700103759773,-4.932374000549219],[103.63880157470717,-4.9348540306090225],[103.64409637451183,-4.9460849761962375],[103.65329742431655,-4.952027797698873],[103.65519714355483,-4.954101085662851],[103.65789794921892,-4.96463203430166],[103.65390014648455,-4.971818923950218],[103.65100097656264,-4.973996162414581],[103.65100097656264,-4.988214969635015],[103.65599822998064,-4.990462779998813],[103.66230010986347,-4.991402149200349],[103.66699981689464,-4.989398002624542],[103.66840362548847,-4.9858269691466415],[103.67400360107429,-4.978478908538838],[103.67980194091811,-4.9726238250732155],[103.68270111084001,-4.966359138488793],[103.68640136718757,-4.962625980377174],[103.69570159912129,-4.960628032684285],[103.70439910888686,-4.962148189544587],[103.71520233154304,-4.967685222625692],[103.72619628906268,-4.975278854370076],[103.73930358886733,-4.985403060913059],[103.74690246582043,-4.99461889266963],[103.74690246582043,-5.000037193298242],[103.74299621582051,-5.005099773406881],[103.74800109863287,-5.01235103607169],[103.74459838867196,-5.016191005706757],[103.73670196533223,-5.021962165832546],[103.73690032959004,-5.025362014770481],[103.74389648437514,-5.039372920989967],[103.75160217285179,-5.044963836669899],[103.75779724121107,-5.0440301895141335],[103.76159667968761,-5.040886878967262],[103.76129913330098,-5.03262996673581],[103.76809692382825,-5.029336929321323],[103.77439880371108,-5.028920173645043],[103.7815017700197,-5.030928134918119],[103.78399658203145,-5.033339023590107],[103.78810119628918,-5.043436050415059],[103.79209899902354,-5.046054840087907],[103.81060028076182,-5.050456047058068],[103.82060241699236,-5.054448127746488],[103.82810211181663,-5.0595231056212295],[103.83540344238293,-5.065402030944851],[103.84110260009774,-5.074553012847934],[103.84249877929702,-5.081483840942399],[103.8501968383791,-5.091053962707411],[103.85559844970712,-5.099057197570774],[103.86129760742193,-5.100535869598351],[103.86080169677749,-5.105493068695074],[103.86409759521503,-5.110245227813733],[103.8714981079103,-5.1121988296508345],[103.87770080566412,-5.109212875366117],[103.88200378417986,-5.113658905029302],[103.89040374755876,-5.116952896118173],[103.90889739990251,-5.127350807189975],[103.92150115966814,-5.139551162719732],[103.92720031738297,-5.148818969726539],[103.9309005737307,-5.159578800201322],[103.93329620361342,-5.17234420776362],[103.93360137939462,-5.179209232330214],[103.92829895019543,-5.184078216552686],[103.92910003662124,-5.1878328323363885],[103.92639923095714,-5.194269180297836],[103.91850280761741,-5.201078891754159],[103.90519714355477,-5.207040786743141],[103.9004974365236,-5.2115669250488015],[103.89890289306649,-5.216566085815396],[103.90019989013695,-5.223678112030013],[103.90209960937523,-5.227443218231228],[103.90889739990251,-5.2349939346313565],[103.91259765625023,-5.235533237457309],[103.91829681396506,-5.23367691040035],[103.9231033325196,-5.234515190124474],[103.9335021972658,-5.2334880828857475],[103.9393005371096,-5.235431194305425],[103.95510101318379,-5.244657993316656],[103.97329711914072,-5.2499809265136275],[103.98100280761736,-5.254649162292454],[103.99610137939473,-5.267268180847081],[104.00229644775402,-5.277812957763702],[104.00530242919928,-5.2875308990478285],[104.00559997558611,-5.292143821716207],[104.00050354003928,-5.295456886291513],[103.99800109863301,-5.302934169769321],[103.99050140380874,-5.306976795196446],[103.99030303955091,-5.3096899986267285],[103.99410247802746,-5.318078994750982],[103.99960327148446,-5.322500228881784],[104.01270294189473,-5.324958801269505],[104.02420043945321,-5.331042766571011],[104.02770233154311,-5.3359131813048375],[104.0289993286134,-5.341105937957776],[104.02480316162121,-5.351122856140163],[104.02449798584001,-5.356079101562413],[104.02670288085947,-5.361282825469923],[104.03530120849621,-5.365553855895962],[104.04470062255876,-5.369373798370388],[104.05439758300795,-5.377282142639169],[104.05879974365249,-5.384061813354398],[104.0615997314454,-5.39204311370853],[104.06739807128923,-5.398028850555333],[104.06700134277358,-5.403907775878865],[104.07119750976577,-5.407973766326931],[104.0747985839845,-5.406847953796353],[104.07959747314469,-5.410109996795628],[104.08930206298842,-5.4145088195800515],[104.09889984130879,-5.420517921447706],[104.10489654541024,-5.425282955169704],[104.11009979248061,-5.434326171874956],[104.1134033203127,-5.446287155151316],[104.12010192871116,-5.457529067993191],[104.13400268554707,-5.461137771606458],[104.14270019531263,-5.464603900909323],[104.15429687500009,-5.470859050750706],[104.16680145263692,-5.4764289855956125],[104.17659759521493,-5.482030868530293],[104.20249938964866,-5.499980926513578],[104.21130371093757,-5.508928775787366],[104.21489715576195,-5.516106128692529],[104.21219635009786,-5.5216832160950045],[104.21369934082048,-5.524290084838897],[104.21949768066412,-5.525716781616238],[104.2332000732424,-5.530773162841781],[104.24780273437514,-5.538606166839562],[104.25610351562523,-5.543852806091328],[104.27349853515634,-5.553959846496555],[104.28050231933615,-5.558618068695017],[104.29789733886726,-5.573799133300691],[104.30519866943371,-5.582779884338281],[104.31240081787118,-5.594150066375688],[104.31780242919936,-5.606873989105173],[104.3182983398438,-5.616281032562261],[104.31770324707054,-5.619799137115452],[104.31179809570335,-5.630021095275902],[104.30719757080098,-5.632991790771454],[104.30249786376962,-5.632207870483304],[104.29891967773452,-5.629563331603956],[104.29840087890643,-5.638642787933309],[104.2996978759767,-5.641014099120985],[104.3155975341799,-5.647699832916283],[104.323799133301,-5.6524858474731285],[104.33529663085946,-5.657647132873441],[104.36530303955092,-5.672915935516306],[104.3750991821291,-5.680138111114404],[104.38490295410166,-5.686201095581064],[104.39189910888695,-5.6919078826903355],[104.40480041503922,-5.700363159179696],[104.41239929199232,-5.706296920776351],[104.4178009033205,-5.7125091552733895],[104.42009735107442,-5.724180221557647],[104.42230224609386,-5.72777318954469],[104.43080139160178,-5.734747886657617],[104.43750000000023,-5.73912477493281],[104.44210052490243,-5.743653774261444],[104.44429779052751,-5.74765396118155],[104.44670104980479,-5.756494045257595],[104.45290374755879,-5.764958858489996],[104.4688034057618,-5.779550075531011],[104.48179626464854,-5.793776035308747],[104.50330352783226,-5.812037944793721],[104.52459716796892,-5.829377174377411],[104.53639984130874,-5.8375411033630495],[104.55699920654311,-5.860929012298618],[104.5617980957033,-5.865865230560315],[104.57060241699239,-5.879425048828098],[104.57319641113295,-5.889025211334205],[104.57420349121112,-5.899870872497589],[104.57330322265648,-5.904538154601942],[104.56749725341813,-5.911938190460161],[104.56250000000011,-5.913459777831994],[104.5548019409182,-5.912138938903718],[104.55149841308611,-5.9151740074157875],[104.55249786376976,-5.92365884780874],[104.55580139160166,-5.9273810386657875],[104.56250415770009,-5.929996673840284]],[[103.81739807128928,-5.114820957183804],[103.81739807128928,-5.106629848480134],[103.821502685547,-5.095516204833968],[103.81990051269554,-5.088683128356882],[103.81649780273446,-5.080092906951924],[103.81300354003926,-5.075634002685577],[103.79270172119153,-5.079883098602208],[103.78919982910162,-5.0816521644592125],[103.78289794921898,-5.081736087799046],[103.77469635009788,-5.0871047973632475],[103.77030181884788,-5.093682765960713],[103.76869964599625,-5.10025501251223],[103.76909637451189,-5.107226848602272],[103.77369689941426,-5.113308906555188],[103.78130340576189,-5.116607189178476],[103.79799652099618,-5.125703811645407],[103.80639648437509,-5.126946926116856],[103.81559753417983,-5.125658035278354],[103.81829833984392,-5.1213860511779306],[103.81739807128928,-5.114820957183804]]]},"properties":{"WP_1":"C.01","WP_IMM":"Perairan barat Lampung","WPIMM":"(C.01. Perairan barat Lampung)","WilPel":"Stamar Panjang - Lampung","Field_SPLI":"C01","simbol":"C"}},
{"type":"Feature","geometry":{"type":"Polygon","coordinates":[[[105.90159967938418,-4.934629990489411],[106.35001416486044,-4.931599801802507],[106.3500178100001,-5.3000000000000345],[106.35000000000022,-5.699999999999902],[106.05000000000003,-5.700017810000043],[105.79694761689008,-5.69999999999999],[105.80619812011732,-5.688259124755875],[105.80909729003905,-5.683226108550917],[105.8107986450195,-5.658712863922096],[105.8128967285156,-5.642683029174696],[105.81269836425795,-5.639226913452108],[105.81490325927741,-5.632912158966038],[105.81819915771496,-5.617211818695052],[105.82050323486341,-5.601246833801229],[105.8226013183595,-5.5898118019104235],[105.8251037597656,-5.586425781250034],[105.8211975097657,-5.579566001892063],[105.8134994506836,-5.576418876647923],[105.81529998779305,-5.572978973388706],[105.82019805908206,-5.572195053100556],[105.82170104980469,-5.568521022796654],[105.81999969482423,-5.556086063384976],[105.81999969482423,-5.548412799835175],[105.82109832763669,-5.52244806289672],[105.82129669189452,-5.508355140685991],[105.82089996337905,-5.496451854705816],[105.8218002319337,-5.481092929840111],[105.82109832763669,-5.4640707969665545],[105.82209777832033,-5.449687957763635],[105.82369995117196,-5.438082218170189],[105.82099914550787,-5.4132747650146715],[105.82080078125006,-5.402295112609897],[105.81980133056642,-5.3900308609007705],[105.81999969482423,-5.37667608261105],[105.8190994262696,-5.362363815307566],[105.82009887695324,-5.342988014221147],[105.8197021484376,-5.336088180541983],[105.82250213623051,-5.320797920227035],[105.8273010253907,-5.308282852172882],[105.83170318603524,-5.300074100494397],[105.83940124511733,-5.288433074951145],[105.84829711914071,-5.278128147125246],[105.85729980468761,-5.270003795623742],[105.86239624023445,-5.2616848945617765],[105.86350250244143,-5.256049156188999],[105.86109924316416,-5.238784790039071],[105.85990142822271,-5.21364212036128],[105.85939788818371,-5.19667387008664],[105.85980224609389,-5.172461032867433],[105.86049652099616,-5.163314819335914],[105.86070251464852,-5.149865150451612],[105.8600006103517,-5.141462802886961],[105.85759735107426,-5.128505229949939],[105.8564987182618,-5.110271930694529],[105.85540008544935,-5.079320907592729],[105.85739898681643,-5.040678977966314],[105.86360168457044,-5.002058029174835],[105.86499786376953,-4.988986015319826],[105.87100219726571,-4.967235088348373],[105.87400054931645,-4.960494041442894],[105.87999725341808,-4.955358982086141],[105.89330291748054,-4.947864055633518],[105.90370178222655,-4.93887186050412],[105.90159967938418,-4.934629990489411]]]},"properties":{"WP_1":"C.06","WP_IMM":"Perairan timur Lampung bagian selatan","WPIMM":"(C.06. Perairan timur Lampung bagian selatan)","WilPel":"Stamar Panjang - Lampung","Field_SPLI":"C06","simbol":"C"}},
{"type":"Feature","geometry":{"type":"Polygon","coordinates":[[[105.15000000000009,-5.810283233509979],[105.15000000000009,-6.049999999999974],[104.67439936844647,-6.450170636606819],[104.54274025035346,-6.293029108560196],[104.37184340844007,-6.082525273250058],[104.56250415770009,-5.929996673840284],[104.57240295410158,-5.934819221496609],[104.5782012939454,-5.9402799606323295],[104.58319854736341,-5.941698074340836],[104.58899688720705,-5.937417030334432],[104.60330200195314,-5.937571048736464],[104.61720275878906,-5.938365936279274],[104.63349914550788,-5.938069820404076],[104.6611022949219,-5.936305046081577],[104.66850280761717,-5.93624210357668],[104.68019866943364,-5.93384218215944],[104.68840026855473,-5.933092117309565],[104.7173004150392,-5.934160232543958],[104.72149658203139,-5.934020042419382],[104.72769927978521,-5.931867122650166],[104.72959899902348,-5.928937911987338],[104.72399902343749,-5.92301607131955],[104.72540283203129,-5.915003776550295],[104.72470092773447,-5.912000179290763],[104.71949768066412,-5.901700019836428],[104.70780181884766,-5.884654045104872],[104.70189666748047,-5.882475852966303],[104.6950988769532,-5.875683784484883],[104.69809722900392,-5.8638200759887535],[104.70230102539065,-5.855250835418731],[104.7081985473633,-5.848430156707748],[104.70939636230474,-5.845264911651645],[104.70929718017592,-5.835342884063751],[104.70850372314464,-5.831181049346897],[104.69989776611338,-5.82523679733273],[104.69869995117192,-5.820967197418222],[104.69439697265638,-5.8123412132263095],[104.68969726562501,-5.808726787567094],[104.6875000000001,-5.803749084472672],[104.68319702148438,-5.8000330924988095],[104.68060302734382,-5.789394855499227],[104.67459869384764,-5.786356925964361],[104.67050170898445,-5.778538227081272],[104.66089630126955,-5.769299030303939],[104.65689849853517,-5.757445812225233],[104.64600372314453,-5.748024940490689],[104.64409637451172,-5.745245933532713],[104.6412963867188,-5.7369132041931135],[104.64199829101562,-5.731268882751413],[104.64510345458989,-5.72852420806886],[104.65110015869153,-5.7280969619750675],[104.65270233154298,-5.72591876983641],[104.65229797363281,-5.719686985015878],[104.6494979858399,-5.710204124450643],[104.64569854736335,-5.699968814849884],[104.63919830322271,-5.68803977966312],[104.62290191650388,-5.6678137779235325],[104.61199951171888,-5.6526579856872115],[104.60240173339851,-5.641693115234366],[104.59670257568368,-5.637036800384495],[104.58200073242195,-5.622167110443007],[104.57630157470713,-5.6143989562988015],[104.57070159912112,-5.609398841857912],[104.56230163574222,-5.597856044769275],[104.55960083007812,-5.588780879974339],[104.55419921875011,-5.586088180542022],[104.55429840087893,-5.5786528587340865],[104.54879760742193,-5.565576076507602],[104.54810333251966,-5.5614151954650435],[104.54560089111338,-5.556779861450197],[104.5381011962891,-5.551073074340836],[104.53379821777357,-5.54649114608767],[104.52940368652355,-5.543916225433373],[104.53209686279311,-5.5358071327209455],[104.54180145263683,-5.532988071441599],[104.54720306396484,-5.523162841796877],[104.55210113525402,-5.517714023590111],[104.56069946289075,-5.51114082336421],[104.57289886474622,-5.505663871765028],[104.59529876708987,-5.497137069702115],[104.60160064697268,-5.496087074279773],[104.60810089111332,-5.4983201026916415],[104.61810302734388,-5.4987940788268705],[104.62439727783216,-5.503569126129145],[104.63179779052743,-5.503045082092269],[104.63600158691416,-5.505961894988905],[104.64430236816408,-5.508903026580777],[104.65799713134763,-5.514998912811238],[104.66290283203135,-5.518143177032494],[104.673698425293,-5.518628120422383],[104.68080139160163,-5.517064094543441],[104.69180297851564,-5.517249107360863],[104.6979980468751,-5.51948976516727],[104.70459747314456,-5.520168781280473],[104.71150207519538,-5.525231838226349],[104.72070312500011,-5.537527084350598],[104.72660064697276,-5.546569824218702],[104.72810363769538,-5.552696228027317],[104.72769927978521,-5.559154033660848],[104.7324981689454,-5.559359073638911],[104.73500061035166,-5.5635309219360405],[104.74120330810548,-5.56386518478393],[104.74739837646494,-5.56662321090697],[104.75189971923831,-5.5756459236145215],[104.75800323486331,-5.57811403274537],[104.76149749755868,-5.5817718505859],[104.76589965820322,-5.595545768737816],[104.76850128173832,-5.6002779006958345],[104.77210235595705,-5.603249073028534],[104.78109741210942,-5.607411861419683],[104.79489898681652,-5.611066818237328],[104.79949951171888,-5.6133599281311195],[104.81050109863288,-5.616213798522947],[104.8140029907228,-5.619809150695817],[104.82209777832036,-5.620272159576386],[104.82489776611327,-5.621504783630323],[104.83599853515626,-5.632363796234104],[104.84770202636727,-5.636548042297337],[104.85520172119155,-5.640925884246824],[104.86219787597665,-5.646625041961647],[104.8699035644531,-5.6511840820311985],[104.8755035400391,-5.658371925353963],[104.88359832763683,-5.66247081756592],[104.88980102539065,-5.664297103881784],[104.89679718017575,-5.664288043975803],[104.89839935302739,-5.657550811767594],[104.90290069580075,-5.659545898437509],[104.90080261230466,-5.670433998107912],[104.90360260009776,-5.6747250556945925],[104.90979766845703,-5.678287029266334],[104.91169738769531,-5.681238174438482],[104.91120147705085,-5.684755802154525],[104.91750335693366,-5.686472892761204],[104.9240036010743,-5.694883823394777],[104.92910003662114,-5.695958137512177],[104.93280029296886,-5.693385124206559],[104.93499755859378,-5.699863910675026],[104.94120025634777,-5.703598022460939],[104.94640350341795,-5.703979969024649],[104.95050048828132,-5.709146022796615],[104.95259857177741,-5.707999229431101],[104.95860290527342,-5.709318161010698],[104.96089935302733,-5.705233097076375],[104.95919799804688,-5.698699951171845],[104.96199798583997,-5.693702220916782],[104.96880340576179,-5.698422908782993],[104.9705963134767,-5.702360153198201],[104.9690017700196,-5.706391811370844],[104.96910095214842,-5.714748859405502],[104.9787979125978,-5.713720798492391],[104.98650360107425,-5.715513229370069],[104.98619842529307,-5.721047878265347],[104.98899841308598,-5.722852230071981],[104.9947967529298,-5.719603061676045],[105.00620269775399,-5.725751876831039],[105.01090240478517,-5.7264070510864205],[105.01149749755864,-5.732048988342294],[105.01840209960945,-5.731851100921622],[105.01969909667973,-5.726277828216505],[105.02269744873045,-5.725658893585225],[105.02950286865246,-5.729142189025845],[105.03189849853518,-5.728116035461413],[105.03359985351564,-5.732673168182375],[105.03109741210938,-5.73731613159176],[105.02619934082037,-5.7378740310669105],[105.02390289306645,-5.743384838104278],[105.02819824218764,-5.745586872100846],[105.027099609375,-5.750236988067622],[105.02980041503909,-5.75359010696412],[105.03489685058592,-5.748150825500483],[105.04340362548837,-5.7519259452819735],[105.04630279541028,-5.749642848968458],[105.04949951171884,-5.741199970245377],[105.05419921875001,-5.743464946746842],[105.05799865722656,-5.742275238037072],[105.0595016479492,-5.745674133300801],[105.05660247802747,-5.747965812683061],[105.05840301513675,-5.753263950347916],[105.06199645996094,-5.757936000823923],[105.0630035400391,-5.763009071350075],[105.06569671630866,-5.764225959777788],[105.06849670410158,-5.756707191467255],[105.07379913330075,-5.753281116485583],[105.08159637451185,-5.753315925598153],[105.08689880371104,-5.754837989807134],[105.08969879150395,-5.758353233337351],[105.08950042724612,-5.775836944580034],[105.0949020385743,-5.774717807769788],[105.09829711914068,-5.771855831146274],[105.1080017089844,-5.771155834197957],[105.10919952392587,-5.77501678466796],[105.1018981933594,-5.776645183563241],[105.09919738769531,-5.779108047485378],[105.09809875488286,-5.784736156463618],[105.09459686279295,-5.789552211761469],[105.0887985229493,-5.794985771179158],[105.0942993164063,-5.796226978302018],[105.09970092773449,-5.794122219085681],[105.10559844970713,-5.7866711616516096],[105.10890197753905,-5.780642986297609],[105.11340332031259,-5.777273178100591],[105.11849975585942,-5.7758011817931685],[105.12280273437514,-5.7772059440612775],[105.12409973144541,-5.782097816467276],[105.12789916992196,-5.786489009857162],[105.1253967285157,-5.795735836028944],[105.12740325927733,-5.797706127166743],[105.13339996337896,-5.794451236724859],[105.13809967041016,-5.796770095825151],[105.14389801025398,-5.80646705627443],[105.15000000000009,-5.810283233509979]],[[104.84400177001955,-5.797813892364486],[104.83460235595717,-5.7895541191100595],[104.82499694824226,-5.787008762359621],[104.81050109863288,-5.778715133667008],[104.79450225830088,-5.7658500671385635],[104.78919982910169,-5.762062072753912],[104.78189849853524,-5.760344028472849],[104.77929687500014,-5.761073112487788],[104.77980041503915,-5.769386768341041],[104.77909851074233,-5.777337074279783],[104.7864990234376,-5.780620098113905],[104.7891006469727,-5.784449100494401],[104.7919998168946,-5.792548179626463],[104.8002014160157,-5.7998671531677335],[104.80490112304689,-5.810689926147413],[104.81009674072271,-5.817298889160179],[104.81079864501953,-5.824283123016324],[104.81349945068362,-5.825923919677708],[104.8188018798828,-5.826418876647962],[104.8244018554688,-5.829979896545408],[104.8355026245118,-5.83265304565432],[104.84259796142591,-5.839392185211208],[104.8479995727539,-5.8397779464721875],[104.85179901123045,-5.8428587913513095],[104.85530090332037,-5.8428897857666104],[104.85510253906254,-5.8370561599731605],[104.85310363769545,-5.830585956573438],[104.85350036621091,-5.8168568611144575],[104.85260009765628,-5.807847023010245],[104.84909820556655,-5.800325870513886],[104.84400177001955,-5.797813892364486]]]},"properties":{"WP_1":"C.02","WP_IMM":"Selat Sunda bagian barat","WPIMM":"(C.02. Selat Sunda bagian barat)","WilPel":"Stamar Panjang - Lampung","Field_SPLI":"C02","simbol":"C"}},
{"type":"Feature","geometry":{"type":"Polygon","coordinates":[[[105.23794148867732,-5.824561748116649],[105.23529815673857,-5.82731008529653],[105.22932434082054,-5.829244613647374],[105.23490142822293,-5.834845066070523],[105.24340057373065,-5.833964824676526],[105.25520324707048,-5.835226058959938],[105.26300048828158,-5.837848186492819],[105.26940155029321,-5.837768077850255],[105.27189636230494,-5.836110115051293],[105.27829742431659,-5.839935779571489],[105.28440093994159,-5.8395581245421955],[105.2895896869747,-5.833320148349715],[105.5031246904739,-5.869530995698954],[105.50160217285188,-5.873419761657624],[105.49749755859398,-5.872656822204499],[105.4941024780276,-5.876840114593525],[105.49130249023469,-5.8776850700378045],[105.49099731445334,-5.884414196014417],[105.49340057373078,-5.885632038116425],[105.50090026855489,-5.884808063506993],[105.50050354003925,-5.894640922546342],[105.50530242919943,-5.899374008178745],[105.5100021362308,-5.8995127677917],[105.5148010253908,-5.895338058471685],[105.52780151367207,-5.8929238319396635],[105.52999877929717,-5.880457878112685],[105.52729797363308,-5.8775119781494265],[105.52940350884965,-5.873987306210756],[105.71230316162135,-5.9050030708311905],[105.71669769287126,-5.9046797752380495],[105.71773594551628,-6.049999999999974],[105.15000000000009,-6.049999999999974],[105.15000000000009,-5.810283233509979],[105.1531982421877,-5.81019115447989],[105.23794148867732,-5.824561748116649]],[[105.48390197753923,-5.922863960266019],[105.47470092773469,-5.925978183746357],[105.47229766845723,-5.930630207061723],[105.4669036865236,-5.934570789337053],[105.46209716796905,-5.944210052490147],[105.46320343017604,-5.948297023773149],[105.46179962158223,-5.954792976379371],[105.4666976928714,-5.958901882171604],[105.4664993286136,-5.962295055389296],[105.47589874267597,-5.966415882110573],[105.48000335693386,-5.970291137695268],[105.48490142822287,-5.971579074859653],[105.48870086669942,-5.969646930694546],[105.49829864501979,-5.967501163482632],[105.50250244140652,-5.9655060768127175],[105.50520324707061,-5.962245941162122],[105.51200103759788,-5.950253009796166],[105.51190185546906,-5.942492008209262],[105.5093994140628,-5.937819004058872],[105.5100021362308,-5.929650783538728],[105.50620269775406,-5.923768043518015],[105.4990005493166,-5.922583103179898],[105.49269866943379,-5.920022010803235],[105.48780059814479,-5.920236110687279],[105.48390197753923,-5.922863960266019]]]},"properties":{"WP_1":"C.03","WP_IMM":"Teluk Lampung bagian selatan","WPIMM":"(C.03. Teluk Lampung bagian selatan)","WilPel":"Stamar Panjang - Lampung","Field_SPLI":"C03","simbol":"C"}}
]}