<svg width="17" height="17" viewBox="0 0 17 17" fill="none" xmlns="http://www.w3.org/2000/svg">
<path d="M5.88478 8.07911V16.3462C5.88479 16.4577 5.9133 16.5673 5.96762 16.6647C6.02194 16.7621 6.10025 16.8439 6.19512 16.9025C6.28999 16.9611 6.39826 16.9944 6.50965 16.9994C6.62103 17.0043 6.73183 16.9807 6.83151 16.9307L10.7544 14.9692C10.8629 14.9149 10.9541 14.8314 11.0178 14.7282C11.0816 14.6249 11.1153 14.506 11.1153 14.3847V8.07911L16.8519 1.0687C16.9063 1.00224 16.9472 0.925715 16.972 0.843484C16.9969 0.761253 17.0053 0.674931 16.9968 0.589445C16.9883 0.50396 16.963 0.420985 16.9225 0.34526C16.8819 0.269534 16.8268 0.202541 16.7604 0.148104C16.6939 0.0936668 16.6174 0.0528528 16.5352 0.0279919C16.4529 0.00313098 16.3666 -0.00528993 16.2811 0.00321005C16.1956 0.01171 16.1127 0.0369645 16.0369 0.0775313C15.9612 0.118098 15.8942 0.173183 15.8398 0.239641L9.95545 7.43181C9.85977 7.54877 9.80756 7.69525 9.80768 7.84635V13.9806L7.19242 15.2883V7.84635C7.19254 7.69525 7.14033 7.54877 7.04466 7.43181L2.03381 1.30801H12.4229C12.5964 1.30801 12.7627 1.23912 12.8853 1.1165C13.0079 0.993884 13.0768 0.827579 13.0768 0.654171C13.0768 0.480764 13.0079 0.314459 12.8853 0.191841C12.7627 0.0692234 12.5964 0.000337375 12.4229 0.000337375H0.654253C0.530393 0.000254742 0.409058 0.0353573 0.304373 0.101558C0.199688 0.167759 0.115961 0.262334 0.0629382 0.374274C0.0099156 0.486213 -0.0102208 0.610912 0.00487361 0.733852C0.019968 0.856792 0.0696721 0.972915 0.148199 1.0687L5.88478 8.07911Z" fill="#061A33"/>
</svg>
